import graph;
import unicode;
import interpolate; 
texpreamble("\usepackage{mathtext}\usepackage[russian]{babel}");
defaultpen(font("T2A","cmr","m","n"));
locale("it_IT");
usepackage("icomma");
defaultpen(0.4pt + fontsize(10pt));

real[] z_exp = { 0, 0.013461538, 0.036538462, 0.05, 0.063461538, 0.090384615, 0.118, 0.140078431, 0.161764706, 0.188461538, 0.2 };
real[] sigma_x_exp = { -872, -1000, -1111.54, -1069.23, -1000, -800, -600, -400, -200, 0, 34.78 };

real[] z_exp_fin = { 0, 0.003, 0.006, 0.012, 0.021, 0.029, 0.047, 0.05, 0.062, 0.076, 0.088, 0.1, 0.103, 0.115, 0.126, 0.147, 0.15, 0.165, 0.176, 0.188, 0.2, 0.212 };
real[] sigma_x_exp_fin = { -588.2353, -599.999, -620.294, -643.05877, -668.35289, -695.647, -719.94112, -721.176415, -719.4117, -685.35289, -647.05877, -599.999, -587, -527.941, -484.1176, -380, -358, -272.35292, -190, -94.11764, 0, 11.7647 }; 

real[] z_calc = { 0, 0.01, 0.02, 0.03, 0.04, 0.05, 0.06, 0.07, 0.08, 0.09, 0.1, 0.12, 0.13, 0.14, 0.15, 0.16, 0.17, 0.18, 0.19, 0.2, 0.21, 0.22, 0.23, 0.24, 0.25 };
real[] sigma_x_calc1 = { -872.4705966, -977.7021723, -1056.624898, -1102.097387, -1109.848955, -1079.140712, -1012.881519, -917.1738837, -800.3876976, -671.9567472, -541.1369637, -302.4664326, -204.503184, -123.6901698, -59.829228, -11.4064794, 23.8623345, 48.5500824, 65.1546846, 75.8716191, 82.4869926, 86.3630217, 88.4810988, 89.5128165, 89.8957989 };
real[] sigma_x_calc2 = { -691.0275834, -774.3747168, -836.8843311, -872.9000784, -879.0396669, -854.7176358, -802.2380598, -726.4341297, -633.9353454, -532.2134934, -428.5995867, -239.564124, -161.9736948, -97.9669764, -47.3869107, -9.0343233, 18.8998479, 38.4533361, 51.6048183, 60.0930189, 65.332638, 68.4025794, 70.0801875, 70.8972624, 71.2006857 };
real[] sigma_x_calc3 = { -543.5820081, -544.9097916, -545.1558264, -545.2144902, -545.2213572, -545.1892785, -545.0529195, -544.4029089, -540.1471347, -510.8599683, -427.315752, -239.5638297, -161.9736948, -97.9669764, -47.3869107, -9.0343233, 18.8994555, 38.4445071, 51.5676384, 60.0125769, 65.2093263, 68.2465023, 69.9034113, 70.7095971, 71.008704 };
real[] sigma_x_calc4 = { -686.3101506, -687.9866796, -688.2972642, -688.3712316, -688.3800606, -688.3394472, -688.1673798, -687.3466752, -681.9734439, -644.9964147, -539.5160574, -302.4660402, -204.503184, -123.6901698, -59.829228, -11.4064794, 23.861844, 48.538899, 65.1076947, 75.7700856, 82.3313079, 86.1659388, 88.2579213, 89.2758069, 89.6534919 };

picture pic1;

// графики
draw(pic1, graph(z_exp, sigma_x_exp, Hermite(monotonic)),linewidth(0.8pt));
draw(pic1, graph(z_exp_fin, sigma_x_exp_fin, Hermite(monotonic)),linewidth(0.8pt));
draw(pic1, graph(z_calc, sigma_x_calc1, Hermite(monotonic)),dashed+linewidth(0.8pt));
draw(pic1, graph(z_calc, sigma_x_calc2, Hermite(monotonic)),dashed+linewidth(0.8pt));
draw(pic1, graph(z_calc, sigma_x_calc3, Hermite(monotonic)),dashed+linewidth(0.8pt));
draw(pic1, graph(z_calc, sigma_x_calc4, Hermite(monotonic)),dashed+linewidth(0.8pt));

// пределы осей
xlimits(pic1, 0, 0.25);
ylimits(pic1, -1200, 150);

// подписи к осям
xaxis(pic1,Label(shift(10,-2)*"$z, мм$",1),BottomTop);
yaxis(pic1,Label(shift(20,12)*"$\sigma_x$, МПа",1),LeftRight);
label(pic1, "$0$",(0, -1200), S);
label(pic1, "$0.05$",(0.05, -1200), S);
label(pic1, "$0.1$",(0.1, -1200), S);
label(pic1, "$0.15$",(0.15, -1200), S);
label(pic1, "$0.2$",(0.2, -1200), S);
label(pic1, "$-1200$",(0, -1200), W);
label(pic1, "$-900$",(0, -900), W);
label(pic1, "$-600$",(0, -600), W);
label(pic1, "$-300$",(0, -300), W);
label(pic1, "$0$",(0, 0), W);

// штриховка
xequals(pic1, 0.05, Dotted);
xequals(pic1, 0.1, Dotted);
xequals(pic1, 0.15, Dotted);
xequals(pic1, 0.2, Dotted);
yequals(pic1, -900, Dotted);
yequals(pic1, -600, Dotted);
yequals(pic1, -300, Dotted);
yequals(pic1, 0);

draw(pic1, (0.090384615, -800)--(0.13, -840), linewidth(0.4pt));
draw(pic1, (0.087, -711.1423998)--(0.13, -840), linewidth(0.4pt));
label(pic1, "\small $1$",(0.13, -820), SE);
draw(pic1, (0.06, -802.2380598)--(0.11, -950), linewidth(0.4pt));
label(pic1, "\small $2$",(0.11, -940), SE);
draw(pic1, (0.03, -545.2144902)--(0.02, -450), linewidth(0.4pt));
label(pic1, "\small $3$",(0.022, -450), NW);
draw(pic1, (0.06, -688.1673798)--(0.04, -450), linewidth(0.4pt));
draw(pic1, (0.115, -527.941)--(0.04, -450), linewidth(0.4pt));
label(pic1, "\small $4$",(0.043, -450), NW);

// размер изображения
size(pic1,6cm,7cm, point(pic1,SW), point(pic1,NE));
frame f1=pic1.fit();
add(f1);

